[
    {
        "title": "Goodie.id",
        "image": "goodie1.png",
        "description": "B2B Digital Loyalty Platform who provides an easy-to-use provides various loyalty algorithms to give the best experience to users, also provides flexible loyalty point redemption or usage-based Tebet, South Jakarta."
    },
    {
        "title": "MoGawe",
        "image": "mogawe.png",
        "description": "MoGawe is a mobile crowdsourcing application that can help companies/businesses to get part-time workers (#MoGawers) throughout Indonesia as it has now started from survey data collection, field inspection, mystery shopper, asset monitoring, Customer traffic generator, and more others by using a mobile application so that the results can be received faster, more accurately at af ordable costs. based Tebet, South Jakarta."
    },
    {
        "title": "Aplikasi Perumahan AR",
        "image": "skripsi.png",
        "description": "Aplikasi Informasi Spesifikasi Tipe Rumah Pada Perumahan Citraland Cibubur Menggunakan Augmented Reality Berbasis Android"
    },
    {
        "title": "Website Penjualan Baju Muslim Toko Doya",
        "image": "pi1.png",
        "description": "Pembuatan Website Penjualan Baju Muslim Pada Toko Doya Dengan Menggunakan PHP dan MYSQL"
    }
]